#fff0
1e00
0500
#ff48
0c71
0010
0631
0231
0123
1e00
0200
3800
2600
0030
0885
10d0
0200
3040
3800
3800
1e20
1234
#500
0c50
0001
0c70
0000
0450
000a
0d10
0003
0cb0
000c
0cd0
0001
08a6
0c90
0000
1090
000a
04d0
0004
4040
4060
4080
40a0
40c0
1e00
1000
#1000
0c50
0010
0c62
0c90
0001
1e00
0400
#400
0864
3200
0100
1e00
0400
#100
0d10
0300
0503
0ce8
0cb2
0007
0910
0002
0cd2
0008
18a6
2e00
0ab0
1e00
1200
#ab0
0c25
0ca6
0cc1
0e45
0007
0e46
0008
0c50
0002
1e00
1200
#1200
0850
0001
3200
0900
1e00
0400
#900
1843
3600
0010
#10
3c00